wholly, 0, adverb, NEUTRAL
precisely, 1, adverb, POSITIVE
forward, 0, adverb, POSITIVE
most, 0, adverb, NEUTRAL
well, 0, adverb, POSITIVE
slowly, 0, adverb, NEGATIVE
meagerly, 0, adverb, POSITIVE
reasonably, 0, adverb, POSITIVE
sanely, 0, adverb, POSITIVE
sanely, 1, adverb, POSITIVE
partially, 0, adverb, NEGATIVE
imperfectly, 0, adverb, NEGATIVE
amply, 0, adverb, POSITIVE
ill, 0, adverb, NEGATIVE
still, 0, adverb, NEUTRAL
evenly, 0, adverb, POSITIVE
evenly, 1, adverb, POSITIVE
softly, 0, adverb, NEGATIVE
sincerely, 0, adverb, POSITIVE
properly, 0, adverb, POSITIVE
decently, 0, adverb, POSITIVE
correctly, 0, adverb, POSITIVE
rightly, 0, adverb, POSITIVE
rarely, 0, adverb, NEUTRAL
unreasonably, 1, adverb, NEGATIVE
unreasonably, 0, adverb, NEGATIVE
immoderately, 0, adverb, NEGATIVE
naturally, 0, adverb, POSITIVE
fortunately, 0, adverb, POSITIVE
happily, 0, adverb, POSITIVE
sadly, 0, adverb, NEGATIVE
unhappily, 0, adverb, NEGATIVE
unfortunately, 0, adverb, NEGATIVE
insanely, 0, adverb, NEGATIVE
acceptably, 0, adverb, POSITIVE
above, 0, adverb, POSITIVE
down, 0, adverb, NEUTRAL
more, 0, adverb, NEUTRAL
less, 0, adverb, NEGATIVE
normally, 0, adverb, POSITIVE
unusually, 0, adverb, NEGATIVE
here, 0, adverb, NEUTRAL
least, 0, adverb, NEGATIVE
necessarily, 0, adverb, NEUTRAL
systematically, 0, adverb, POSITIVE
legally, 0, adverb, POSITIVE
legitimately, 0, adverb, POSITIVE
morally, 1, adverb, POSITIVE
appropriately, 0, adverb, POSITIVE
inappropriately, 0, adverb, NEGATIVE
handily, 0, adverb, POSITIVE
cautiously, 0, adverb, POSITIVE
illegally, 0, adverb, NEGATIVE
unsteadily, 0, adverb, NEGATIVE
unambiguously, 0, adverb, POSITIVE
gracefully, 0, adverb, POSITIVE
graciously, 0, adverb, POSITIVE
gracelessly, 1, adverb, NEGATIVE
ungraciously, 0, adverb, NEGATIVE
competently, 0, adverb, POSITIVE
incompetently, 0, adverb, NEGATIVE
enthusiastically, 0, adverb, POSITIVE
irregularly, 0, adverb, NEGATIVE
fearlessly, 0, adverb, POSITIVE
appreciatively, 0, adverb, POSITIVE
wisely, 0, adverb, POSITIVE
foolishly, 0, adverb, NEGATIVE
incorrectly, 1, adverb, NEGATIVE
trustfully, 0, adverb, POSITIVE
unashamedly, 0, adverb, NEGATIVE
ambitiously, 0, adverb, POSITIVE
impressively, 0, adverb, POSITIVE
unproductively, 0, adverb, NEGATIVE
expertly, 0, adverb, POSITIVE
thoughtlessly, 1, adverb, NEGATIVE
thoughtlessly, 0, adverb, NEGATIVE
auspiciously, 0, adverb, POSITIVE
politely, 0, adverb, POSITIVE
impolitely, 0, adverb, NEGATIVE
pleasantly, 1, adverb, POSITIVE
faithfully, 0, adverb, POSITIVE
unfaithfully, 0, adverb, NEGATIVE
unwittingly, 0, adverb, NEGATIVE
unjustifiably, 0, adverb, NEGATIVE
inexcusably, 0, adverb, NEGATIVE
resolutely, 0, adverb, POSITIVE
beautifully, 0, adverb, POSITIVE
articulately, 1, adverb, POSITIVE
eloquently, 0, adverb, POSITIVE
ineloquently, 0, adverb, NEGATIVE
gallantly, 0, adverb, POSITIVE
unfairly, 0, adverb, NEGATIVE
inconsequentially, 0, adverb, NEGATIVE
incredulously, 0, adverb, NEGATIVE
densely, 1, adverb, NEGATIVE
dishonestly, 0, adverb, NEGATIVE
honorably, 0, adverb, POSITIVE
obediently, 0, adverb, POSITIVE
distrustfully, 0, adverb, NEGATIVE
inefficaciously, 0, adverb, NEGATIVE
egotistically, 0, adverb, NEGATIVE
expediently, 0, adverb, NEGATIVE
gleefully, 0, adverb, POSITIVE
immorally, 0, adverb, NEGATIVE
imprecisely, 0, adverb, NEGATIVE
prudently, 0, adverb, POSITIVE
incomparably, 0, adverb, NEGATIVE
reverentially, 0, adverb, POSITIVE
